3
ZonaA 590 610 650 670 
3 
P1 595 600 665 668 10 4
P2 593 595 665 660 5 3
P3 605 610 655 660 5 5
ZonaB 573 623 638 688 
4 
P4 570 575 680 685 10 7
P5 605 620 680 685 10 2
P6 615 620 665 675 15 5
P7 595 605 632 635 15 6
ZonaC 553 653 618 708
3
P8 555 570 700 708 10 1 
P9 630 640 670 680 15 2
P10 560 575 620 630 15 9